{
  "type": "service_account",
  "project_id": "sinuous-bedrock-323004",
  "private_key_id": "474d202508c371485aa78d93857096dd878222e3",
  "private_key": "-----BEGIN PRIVATE KEY-----\nMIIEvwIBADANBgkqhkiG9w0BAQEFAASCBKkwggSlAgEAAoIBAQCz66B5zd/hDDC/\nWTdqL+J8/lvm5WrQ1TPI7wog8+xIvo9n3OgkxhQsRAREFfx3e9khKiOdWG31jlDE\njl0XILAd/++AgCAQTXgqp1xp7dqLVy+9ZUrkQoLg9tYtJdI+KbCx2UeA7b+HjSbq\n/ltgBkGFvp9ZTotygaL7YEd8QtvixO+tN6cDGG7ljFNAV+QIHDIPgaLbFL3d89Ig\nzSGAFMau1qk4mGJbar6lacrpA0xNTwdcAdF8Xm+Cr87EVN4ZCTWmWlGP/WUaqRoy\nSorduuPKi3vxrrQaobaLUnUaWuZwL6dpzzW8PSnT0z9fn2ISJitdO0j508w/ysOz\nOs6H2UHlAgMBAAECggEAAL5ItbAczGp3OhclhDYJ7r/DQ+8vM4kp81rPdSbk00Ec\nSQ7P07UQyMUIKnrXxeuYUEuDBaejnqfVnBZFeq67I4iW5fZBi6eyRyTVXCesJza3\nPwZP2qUOsty6MkoNdg3IideOtNDmoWn7Hu3plTo5Y5LPyDfrmg/Ai17QtMn27Bcn\n5/G6DJfXkUByVOFC3UgPewHE2hpDwu81xbh5Iav/OzPjNyBfLLfIs64MU4mu9Gx8\ntyAYeE7e8/zyX1+ftqeE16V7rIELq3v/VKv8p1lr4TiKkETRMKQO+NOHaH5QUeES\nBNpJ5RgoL/V4zzJroA4GDMLbdO3ETmGnJdA7dhwn8QKBgQDypXM0IgOCmFBWpHq8\n052xbflmnwEoILpVBMsFg1B16wRvow8LDMdORxySKz3tL44DVuVb4nVHnjnI94Vh\nqQAH0oBk+uUu6tqhDg5UqNTMf/FXsqjtzIAHKqKIWs/iLr541jjfWYYmZnJ4fKkT\nXd6obemsQrLNVVZupTOuWxkukQKBgQC90nTLdK+Zt1scNiHx+qbphSrDF8zMoKZD\nvArCQxYx2L8n16QA8Ysq6ByFe8/HfrmObrcyy/AAE9TxZ6SecyAcalqvXzqPCZdV\nwshQXQMvgQtV1EqZq0RTiN76rGw6NE8AypwDSlGTgoBvRCI0uc/N1aQjp42CNAHl\ng9vYOllwFQKBgQDFItCHMX9CkfbrfbROR2td5Oh0jIiHDpf0TPGZKAet1eQDwymM\no7Qlj7bRtpoYYsNxSR8M2N7J8e4mrZrLLl/c+xPfdsvOo3Y+1UmlVImXH/d3daqz\nkKsPp37nY0h0DeAoEnugUn6gIimsZDOFjYVBuBLaJlJYapXPTR7A8Dh0UQKBgQCl\nIhHy8RbWXdlICJutO8W6vtt9jxXeKh+aK1sctmn3gTyCd6k4HOlZsUUmppgST98y\n1oRPD3VBS/9i5ywhn7uenLM5f1mdF9XsiJ/ksZXU3Kk0yJMBbinpldeNMTSRyfG0\nmY3xmtSuw8fhg99SCReLVEEPt3J2g7HmrbgyOkiWJQKBgQC5IACQXS6Qh7ahj9Ky\n6V+RbnwBFB9HbvEVaiVb8w/qQ5Saf94y1WeIE9/F5FmuMksrdeYqosXQy+Toiecv\nveF9rxIexjQF+AYn+jVNh89CnNsizJcwkWlm4SGLvcF+ioZuWIHjeBsD9Gx0RdTv\nUpbSsZTIxb1QchQjxKkb2IGAVw==\n-----END PRIVATE KEY-----\n",
  "client_email": "lipsync@sinuous-bedrock-323004.iam.gserviceaccount.com",
  "client_id": "106855764466808574204",
  "auth_uri": "https://accounts.google.com/o/oauth2/auth",
  "token_uri": "https://oauth2.googleapis.com/token",
  "auth_provider_x509_cert_url": "https://www.googleapis.com/oauth2/v1/certs",
  "client_x509_cert_url": "https://www.googleapis.com/robot/v1/metadata/x509/lipsync%40sinuous-bedrock-323004.iam.gserviceaccount.com"
}
